<?xml version="1.0" encoding="UTF-8" standalone="no"?>
<svg
   width="16"
   height="16"
   version="1.1"
   id="svg1"
   sodipodi:docname="min.svg"
   inkscape:version="1.3 (0e150ed6c4, 2023-07-21)"
   xmlns:inkscape="http://www.inkscape.org/namespaces/inkscape"
   xmlns:sodipodi="http://sodipodi.sourceforge.net/DTD/sodipodi-0.dtd"
   xmlns="http://www.w3.org/2000/svg"
   xmlns:svg="http://www.w3.org/2000/svg">
  <defs
     id="defs1" />
  <sodipodi:namedview
     id="namedview1"
     pagecolor="#505050"
     bordercolor="#eeeeee"
     borderopacity="1"
     inkscape:showpageshadow="0"
     inkscape:pageopacity="0"
     inkscape:pagecheckerboard="0"
     inkscape:deskcolor="#d1d1d1"
     inkscape:zoom="30.5"
     inkscape:cx="9.2786885"
     inkscape:cy="8.0983607"
     inkscape:window-width="1366"
     inkscape:window-height="705"
     inkscape:window-x="0"
     inkscape:window-y="26"
     inkscape:window-maximized="1"
     inkscape:current-layer="titlebutton-minimize-small" />
  <rect
     y="6.1035001e-07"
     width="16"
     height="16"
     ry="1.6931001e-05"
     opacity="0"
     stroke-width="0.47432"
     style="paint-order:markers stroke fill"
     id="rect1"
     x="0" />
  <g
     transform="translate(-253,242.63782)"
     style="display:inline"
     id="titlebutton-minimize-small"
     inkscape:label="#g1623">
    <rect
       style="opacity:0;fill:#000000;fill-opacity:1;stroke:none;stroke-width:0.474321;stroke-linejoin:miter;stroke-miterlimit:4;stroke-dasharray:none;stroke-opacity:1;paint-order:markers stroke fill"
       id="rect1565-1"
       width="16"
       height="16"
       x="253"
       y="-242.63782"
       ry="1.6930764e-05" />
    <g
       inkscape:label="#g941"
       transform="matrix(1.1538461,0,0,1.1538461,252.92297,-242.71463)"
       id="titlebutton-minimize-1-8"
       style="enable-background:new">
      <g
         transform="translate(-4.9999997,-1033.3622)"
         id="g6-2-7">
        <path
           style="fill:#caa124;fill-opacity:1;fill-rule:evenodd;stroke:none;stroke-width:0.928571"
           d="m 12.000149,1046.8621 c 3.589791,0 6.499943,-2.9101 6.499943,-6.5 0,-3.5899 -2.910152,-6.5 -6.499943,-6.5 -3.5898975,0 -6.5000579,2.9101 -6.5000579,6.5 0,3.5899 2.9101604,6.5 6.5000579,6.5"
           id="path2-37-9"
           inkscape:connector-curvature="0" />
        <path
           style="opacity:1;fill:#fdc92d;fill-opacity:1;fill-rule:evenodd;stroke:none;stroke-width:0.92307"
           d="m 12.000108,1046.3622 c 3.313618,0 5.999892,-2.6864 5.999892,-6 0,-3.3138 -2.686274,-6 -5.999892,-6 -3.3137416,0 -6.0000169,2.6862 -6.0000169,6 0,3.3136 2.6862753,6 6.0000169,6"
           id="path4-59-2"
           inkscape:connector-curvature="0" />
      </g>
    </g>
  </g>
</svg>
