{
  //---------------------------------------------------------
  // ╻ ╻┏━┓┏━┓╻┏ ┏━┓┏━┓┏━┓┏━╸┏━╸┏━┓
  // ┃╻┃┃ ┃┣┳┛┣┻┓┗━┓┣━┛┣━┫┃  ┣╸ ┗━┓
  // ┗┻┛┗━┛╹┗╸╹ ╹┗━┛╹  ╹ ╹┗━╸┗━╸┗━┛
  //---------------------------------------------------------
  "hyprland/workspaces": {
    "disable-scroll": true,
    "all-outputs": false,
    "format-icons": {
      "1": "١",
      "2": "٢",
      "3": "٣",
      "4": "٤",
      "5": "٥",
      "6": "٦",
      "7": "٧",
      "8": "٨",
      "9": "٩"
    },
    "sort-by-number": true,
    "format": "{icon}",
    "on-scroll-up": "hyprctl dispatch workspace e+1",
    "on-scroll-down": "hyprctl dispatch workspace e-1",
    "on-click": "activate",
    "persistent-workspaces": {
      "eDP-1": 3,
      "HDMI-A-1": 3
    }
  },
  //---------------------------------------------------------
  //  ╺┳╸┏━┓┏━┓╻ ╻
  //   ┃ ┣┳┛┣━┫┗┳┛
  //   ╹ ╹┗╸╹ ╹ ╹
  //---------------------------------------------------------
  "tray": {
    "spacing": 6
  },
  //---------------------------------------------------------
  //  ┏━╸╻  ┏━┓┏━╸╻┏
  //  ┃  ┃  ┃ ┃┃  ┣┻┓
  //  ┗━╸┗━╸┗━┛┗━╸╹ ╹
  //---------------------------------------------------------
  "clock": {
    "format": "{:%H:%M}",
    //"format": "<span size='x-large'><b>{:%R</b></span>\n%A %d %m %Y}",
    "tooltip-format": "<tt>{calendar}</tt>",
    //"tooltip-format": "{:L%R\n %A, %d %B, %Y}",
    "on-click": "$HOME/.config/hypr/scripts/launch-eww-bot eww-tr /dev/null & ",
    "calendar": {
      "mode": "month",
      "mode-mon-col": 3,
      "weeks-pos": "left",
      "on-scroll": 1,
      "on-click-right": "mode",
      "format": {
        "months": "<span color='#ffead3'><b>{}</b></span>",
        "days": "<span color='#ecc6d9'>{}</span>",
        "weeks": "<span color='#99ffdd'><b>{}</b></span>",
        "weekdays": "<span color='#ffcc66'><b>{}</b></span>",
        "today": "<span color='#ff6699'><b><u>{}</u></b></span>"
      }
    },
    "actions": {
      "on-click-right": "mode"
    }
  },
  //---------------------------------------------------------
  // ┏━┓╻ ╻╻  ┏━┓┏━╸┏━┓╻ ╻╺┳┓╻┏━┓
  // ┣━┛┃ ┃┃  ┗━┓┣╸ ┣━┫┃ ┃ ┃┃┃┃ ┃
  // ╹  ┗━┛┗━╸┗━┛┗━╸╹ ╹┗━┛╺┻┛╹┗━┛
  //---------------------------------------------------------
  "pulseaudio": {
    "format-alt": "{icon} {volume}% ",
    "format-bluetooth": " {icon} ",
    "format-bluetooth-muted": "{icon}C",
    "format-muted": " {format_source}",
    "format-source": "{volume}% ",
    "format-source-muted": "",
    "format": " {icon} ",
    "format-icons": ["", "", ""],
    "on-click-right": "pavucontrol"
  },
  //---------------------------------------------------------
  // ┏━┓╻ ╻╻  ┏━┓┏━╸┏━┓╻ ╻╺┳┓╻┏━┓   ┏━┓╻  ╻╺┳┓┏━╸┏━┓
  // ┣━┛┃ ┃┃  ┗━┓┣╸ ┣━┫┃ ┃ ┃┃┃┃ ┃   ┗━┓┃  ┃ ┃┃┣╸ ┣┳┛
  // ╹  ┗━┛┗━╸┗━┛┗━╸╹ ╹┗━┛╺┻┛╹┗━┛   ┗━┛┗━╸╹╺┻┛┗━╸╹┗╸
  //---------------------------------------------------------
  "pulseaudio/slider": {
    "min": 0,
    "max": 100,
    "orientation": "horizontal"
  },

  //---------------------------------------------------------
  // ┏┓╻┏━┓╺┳╸╻┏━╸╻┏━╸┏━┓╺┳╸╻┏━┓┏┓╻   ┏━┓╻╺┳┓┏━╸┏┓ ┏━┓┏━┓
  // ┃┗┫┃ ┃ ┃ ┃┣╸ ┃┃  ┣━┫ ┃ ┃┃ ┃┃┗┫   ┗━┓┃ ┃┃┣╸ ┣┻┓┣━┫┣┳┛
  // ╹ ╹┗━┛ ╹ ╹╹  ╹┗━╸╹ ╹ ╹ ╹┗━┛╹ ╹   ┗━┛╹╺┻┛┗━╸┗━┛╹ ╹╹┗╸
  //---------------------------------------------------------
  "custom/notifypanel": {
    "tooltip": false,
    "format": "{icon}",
    "format-icons": {
      "notification": "<span foreground='red'><sup></sup></span>",
      "none": "",
      "dnd-notification": "<span foreground='red'><sup></sup></span>",
      "dnd-none": ""
    },
    "return-type": "json",
    "exec-if": "which swaync-client",
    "exec": "swaync-client -swb",
    "on-click": "swaync-client -t -sw",
    "on-click-right": "swaync-client -cp",
    "escape": true
  },
  //---------------------------------------------------------
  // ┏━┓╺┳╸┏━┓┏━┓╺┳╸   ┏┳┓┏━╸┏┓╻╻ ╻
  // ┗━┓ ┃ ┣━┫┣┳┛ ┃    ┃┃┃┣╸ ┃┗┫┃ ┃
  // ┗━┛ ╹ ╹ ╹╹┗╸ ╹    ╹ ╹┗━╸╹ ╹┗━┛
  //---------------------------------------------------------
  "custom/menu": {
    "format": "﩯",
    "tooltip": false,
    "on-click": "killall rofi ||  ~/.config/rofi/rofi-sh -m /dev/null &"
  },
  //---------------------------------------------------------
  // ╻  ┏━┓┏┓╻┏━╸╻ ╻┏━┓┏━╸┏━╸   ╻  ┏━┓╻ ╻╻ ╻┏━┓╺┳╸
  // ┃  ┣━┫┃┗┫┃╺┓┃ ┃┣━┫┃╺┓┣╸    ┃  ┣━┫┗┳┛┃ ┃┃ ┃ ┃
  // ┗━╸╹ ╹╹ ╹┗━┛┗━┛╹ ╹┗━┛┗━╸   ┗━╸╹ ╹ ╹ ┗━┛┗━┛ ╹
  //---------------------------------------------------------
  "hyprland/language": {
    "format": "{}",
    "format-fr": "FR",
    "format-ar": "AR",
    "keyboard-name": "at-translated-set-2-keyboard",
    "on-click": "hyprctl switchxkblayout at-translated-set-2-keyboard next"
  },
  //---------------------------------------------------------
  //  ╻┏┓╻╻ ╻╻┏┓ ╻╺┳╸┏━┓┏━┓
  //  ┃┃┗┫┣━┫┃┣┻┓┃ ┃ ┃ ┃┣┳┛
  //  ╹╹ ╹╹ ╹╹┗━┛╹ ╹ ┗━┛╹┗╸
  //---------------------------------------------------------
  "idle_inhibitor": {
    "format": "{icon} ",
    "format-icons": {
      "activated": "",
      "deactivated": ""
    }
  },
  //---------------------------------------------------------
  //  ╻ ╻╻ ╻┏━┓┏━┓┏━┓╻ ╻┏━┓╺┳┓┏━╸
  //  ┣━┫┗┳┛┣━┛┣┳┛┗━┓┣━┫┣━┫ ┃┃┣╸
  //  ╹ ╹ ╹ ╹  ╹┗╸┗━┛╹ ╹╹ ╹╺┻┛┗━╸
  //---------------------------------------------------------
  "custom/hyprshade": {
    "format": "{}",
    "return-type": "json",
    "interval": "once",
    "exec": "[ -z $(hyprshade current) ] && echo '{\"text\":\"\"}' || echo '{\"text\":\"\"}'",
    "on-click": " hyprshade toggle ; [ -z $(hyprshade current) ] && echo '{\"text\":\"\"}' || echo '{\"text\":\"\"}'"
  },
  //---------------------------------------------------------
  //      ╻ ╻╺┳╸╺┳╸┏━┓
  //      ┃╻┃ ┃  ┃ ┣┳┛
  //      ┗┻┛ ╹  ╹ ╹┗╸
  //---------------------------------------------------------
  "custom/wttr": {
    "exec": "curl 'wttr.in/ALG?format=1'",
    "format": "{}",
    "tooltip": false,
    "interval": 7200,
    "exec-on-event": true
  },
  //---------------------------------------------------------
  //  ┏━┓┏━┓┏━╸┏┳┓┏━┓┏┓╻   ╻ ╻┏━┓╺┳┓┏━┓╺┳╸┏━╸
  //  ┣━┛┣━┫┃  ┃┃┃┣━┫┃┗┫   ┃ ┃┣━┛ ┃┃┣━┫ ┃ ┣╸
  //  ╹  ╹ ╹┗━╸╹ ╹╹ ╹╹ ╹   ┗━┛╹  ╺┻┛╹ ╹ ╹ ┗━╸
  //---------------------------------------------------------
  "custom/pacman": {
    "format": "{}",
    "tooltip": false,
    "exec": "~/.config/hypr/scripts/pacman.sh",
    "exec-if": "[[ $(checkupdates | wc -l) ]]",
    "interval": 10800,
    "on-click-right": "~/.config/hypr/scripts/pacman.sh",
    "on-click": "kitty -e yay -Syu ; pkill -SIGRTMIN+8 waybar && notify-send 'The system has been updated' ",
    "signal": 8
  },
  //---------------------------------------------------------
  //  ┏┳┓┏━╸╺┳┓╻┏━┓
  //  ┃┃┃┣╸  ┃┃┃┣━┫
  //  ╹ ╹┗━╸╺┻┛╹╹ ╹
  //---------------------------------------------------------
  "custom/media_play": {
    "format": "{}",
    "tooltip": true,
    "return-type": "json",
    "on-click": "~/.config/hypr/scripts/mpris toggle",
    "interval": 5,
    "exec": "~/.config/hypr/scripts/mpris"
    //"exec": "playerctl  -i firefox metadata --format '{\"tooltip\": \"{{playerName}} : {{status}} {{markup_escape(title)}} _ {{xesam:artist}}\"}' -F"
  },
  "custom/media_prev": {
    "format": "玲",
    "tooltip": false,
    "on-click": "playerctl previous"
  },
  "custom/media_next": {
    "format": "怜",
    "tooltip": false,
    "on-click": "playerctl previous"
  },
  //---------------------------------------------------------
  //  ╻ ╻┏━╸┏━┓╺┳╸╻ ╻┏━╸┏━┓
  //  ┃╻┃┣╸ ┣━┫ ┃ ┣━┫┣╸ ┣┳┛
  //  ┗┻┛┗━╸╹ ╹ ╹ ╹ ╹┗━╸╹┗╸
  //---------------------------------------------------------
  "custom/weather": {
    "format": "{}",
    "format-alt": "{alt}: {}",
    "format-alt-click": "click-right",
    "interval": 1800,
    "return-type": "json",
    // "on-click":"python ~/.config/hypr/scripts/waybar-wttr.py",
    // "exec": "python ~/.config/hypr/scripts/waybar-wttr.py",
    // "exec-if": "ping wttr.in -c1"
    "on-click": "~/.config/hypr/scripts/wttr.sh",
    "on-click-right": "~/.config/hypr/scripts/wttr.sh r",
    "exec": "~/.config/hypr/scripts/wttr.sh"
    // "exec-if": "ping wttr.in -c1"
  },
  //---------------------------------------------------------
  //  ┳╸┏━╸┏┳┓┏━┓╻┏━┓┏━┓╺┳╸╻ ╻┏━┓┏━╸
  //  ┃ ┣╸ ┃┃┃┣━┛┃┣┳┛┣━┫ ┃ ┃ ┃┣┳┛┣╸
  //  ╹ ┗━╸╹ ╹╹  ╹╹┗╸╹ ╹ ╹ ┗━┛╹┗╸┗━╸
  //---------------------------------------------------------

  "temperature": {
    "exec-on-event": true,
    "interval": 10,
    "critical-threshold": 60,
    "format": "{icon} {temperatureC}°C",
    "format-alt": "{icon}",
    "tooltip": true,
    //"tooltip-format": "{temperatureC}°C {icon} ",
    "format-icons": [
      "󰔏",
      "󰔏",
      "󰔏",
      "󰔏",
      "󰔏",
      "󰔏",
      "<span color='#f4ee7b'>󰔏</span>",
      "<span color='#fbc341'>󰔏</span>",
      "<span color='#ff6505'>󰔏</span>"
    ]
  },

  //---------------------------------------------------------
  //  ┏┳┓┏━╸┏┳┓┏━┓┏━┓╻ ╻
  //  ┃┃┃┣╸ ┃┃┃┃ ┃┣┳┛┗┳┛
  //  ╹ ╹┗━╸╹ ╹┗━┛╹┗╸ ╹
  //---------------------------------------------------------
  "memory": {
    "interval": 60,
    //"format": "  {}% ",
    "format": "{icon} {percentage}%",
    "format-alt": "{icon}",

    "format-icons": [
      "󰘚",
      "󰘚",
      "󰘚",
      "󰘚",
      "<span color='#8ed926'>󰘚</span>",
      "<span color='#c2cc33'>󰘚</span>",
      "<span color='#cc9e33'>󰘚</span>",
      "<span color='#ff5c0a'>󰘚</span>",
      "<span color='#cc3333'>󰘚</span>",
      "<span color='#ff0000'>󰘚</span>"
    ]
  },
  //---------------------------------------------------------
  // ╺┳┓╻┏━┓╻┏
  //  ┃┃┃┗━┓┣┻┓
  // ╺┻┛╹┗━┛╹ ╹
  //---------------------------------------------------------
  "disk": {
    "exec-on-event": true,
    "interval": 60,
    "format": " {percentage_used}%",
    "path": "/home",
    "format-icons": ["󰪞", "󰪟", "󰪠", "󰪡", "󰪢", "󰪣", "󰪤", "󰪥"]
  },
  //---------------------------------------------------------
  //  ┏━╸┏━┓╻ ╻   ╻ ╻┏━┓┏━┓┏━╸┏━╸
  //  ┃  ┣━┛┃ ┃   ┃ ┃┗━┓┣━┫┃╺┓┣╸
  //  ┗━╸╹  ┗━┛   ┗━┛┗━┛╹ ╹┗━┛┗━╸
  //---------------------------------------------------------
  "cpu": {
    "exec-on-event": true,
    "interval": 5,
    "format": "{usage}% {icon}",
    "format-alt": "{icon}",
    "tooltip": true,
    "format-icons": [
      "▁",
      "▂",
      "<span color='#00ff1e'>▃</span>",
      "<span color='#ffb300'>▄</span>",
      "<span color='#ff5c0a'>▅</span>",
      "<span color='#fa0000'>▆</span>",
      "<span color='#fa0000'>▇</span>",
      "<span color='#fa0000'>█</span>",
      "<span color='#fa0000'>█</span>",
      "<span color='#ff0000'>█</span>"
    ]
  },
  //---------------------------------------------------------
  // ┏┓ ┏━┓╺┳╸╺┳╸┏━┓╻ ╻
  // ┣┻┓┣━┫ ┃  ┃ ┣┳┛┗┳┛
  // ┗━┛╹ ╹ ╹  ╹ ╹┗╸ ╹
  //---------------------------------------------------------
  "battery": {
    "states": {
      "warning": 45,
      "critical": 20
    },

    "format": "{icon}",
    "format-charging": "{icon}󱐋",
    "format-plugged": "{icon}",
    "format-unknown": "{icon}{capacity}%",
    "tooltip-format": "{capacity}% - {timeTo}",
    "format-alt": "{icon} {capacity}%",
    "format-icons": ["", "", "", "", "", "", "", "", "", ""]
    // "format-icons": ["", "", "", "", ""]
  },
  //---------------------------------------------------------
  // ┏━┓┏━┓┏━┓╻ ╻┏━╸┏━┓
  // ┣━┛┣┳┛┣━┫┗┳┛┣╸ ┣┳┛
  // ╹  ╹┗╸╹ ╹ ╹ ┗━╸╹┗╸
  //---------------------------------------------------------
  "custom/prayer": {
    "format": "{}",
    "interval": 60,
    "exec": "~/.config/hypr/scripts/prayer.sh -v"
  },
  //---------------------------------------------------------
  // ╺┳╸┏━┓┏━┓╻┏ ┏┓ ┏━┓┏━┓
  //  ┃ ┣━┫┗━┓┣┻┓┣┻┓┣━┫┣┳┛
  //  ╹ ╹ ╹┗━┛╹ ╹┗━┛╹ ╹╹┗╸
  //---------------------------------------------------------
  "wlr/taskbar": {
    "format": "{icon}",
    "icon-size": 22,
    "tooltip-format": "{title}",
    "on-click": "activate",
    "on-click-middle": "close",
    // "icon-theme": "Deepin2022-Dark",
    //"icon-theme":"Mkos-Big-Sur-Night" ,
    // "icon-theme":"candy-icons" ,
    // "icon-theme": "BeautySolar",
    "ignore-list": ["ueberzugpp_*", "terminal-dropterm"],
    "app_ids-mapping": {
      "firefoxdeveloperedition": "firefox-developer-edition"
    }
  },

  //---------------------------------------------------------
  // ╻ ╻╻┏┓╻╺┳┓┏━┓╻ ╻   ╺┳╸╻╺┳╸╻  ┏━╸
  // ┃╻┃┃┃┗┫ ┃┃┃ ┃┃╻┃    ┃ ┃ ┃ ┃  ┣╸
  // ┗┻┛╹╹ ╹╺┻┛┗━┛┗┻┛    ╹ ╹ ╹ ┗━╸┗━╸
  //---------------------------------------------------------
  "hyprland/window": {
    "format": "{title}",
    "max-length": 40,
    "icon": true,
    "icon-size": 16,
    "tooltip": true,
    "rewrite": {
      "(.*)VSCodium(.*)": "<span foreground='#1573FF' size='x-large'> </span>$1 VSCodium",
      "(.*) — Qsplayer": "<span foreground='#1573FF' size='x-large'> </span>$1",
      "(.*) - fish": "> [$1]"
    },
    "separate-outputs": true,
    "on-click-middle": "hyprctl dispatch killactive ",
    "on-click-right": "hyprctl dispatch  togglefloating",
    "on-click": "hyprctl dispatch fullscreen 1"
  },
  //---------------------------------------------------------
  // ┏┓ ┏━┓┏━╸╻┏ ╻  ╻┏━╸╻ ╻╺┳╸
  // ┣┻┓┣━┫┃  ┣┻┓┃  ┃┃╺┓┣━┫ ┃
  // ┗━┛╹ ╹┗━╸╹ ╹┗━╸╹┗━┛╹ ╹ ╹
  //---------------------------------------------------------
  "backlight": {
    "device": "intel_backlight",
    "format-alt": " {icon} {percent}%",
    "format": "{icon}",
    "tooltip": false,
    "format-icons": ["", "", "", "", "", "", "", "", ""]
  },
  //---------------------------------------------------------
  // ┏┓ ┏━┓┏━╸╻┏ ╻  ╻┏━╸╻ ╻╺┳╸   ┏━┓╻  ╻╺┳┓┏━╸┏━┓
  // ┣┻┓┣━┫┃  ┣┻┓┃  ┃┃╺┓┣━┫ ┃    ┗━┓┃  ┃ ┃┃┣╸ ┣┳┛
  // ┗━┛╹ ╹┗━╸╹ ╹┗━╸╹┗━┛╹ ╹ ╹    ┗━┛┗━╸╹╺┻┛┗━╸╹┗╸
  //---------------------------------------------------------
  "backlight/slider": {
    "min": 0,
    "max": 100,
    "orientation": "horizontal",
    "device": "intel_backlight"
  },
  //---------------------------------------------------------
  // ╺┳╸╻ ╻┏━╸┏┳┓┏━╸
  //  ┃ ┣━┫┣╸ ┃┃┃┣╸
  //  ╹ ╹ ╹┗━╸╹ ╹┗━╸  󰏘
  //---------------------------------------------------------

  //---------------------------------------------------------
  // ┏━┓┏━┓┏┓╻╺┳┓┏━┓┏┳┓   ┏┓ ┏━┓┏━╸╻┏ ┏━╸┏━┓┏━┓╻ ╻┏┓╻╺┳┓
  // ┣┳┛┣━┫┃┗┫ ┃┃┃ ┃┃┃┃   ┣┻┓┣━┫┃  ┣┻┓┃╺┓┣┳┛┃ ┃┃ ┃┃┗┫ ┃┃
  // ╹┗╸╹ ╹╹ ╹╺┻┛┗━┛╹ ╹   ┗━┛╹ ╹┗━╸╹ ╹┗━┛╹┗╸┗━┛┗━┛╹ ╹╺┻┛
  //---------------------------------------------------------
  "custom/background_random": {
    "format": "󰥷",
    "return-type": "json",
    "interval": "once",
    "exec": "echo '{\"tooltip\":\"Super+Shift+W random background only\"}'",
    "on-click": "$HOME/.config/hypr/scripts/selectwal.sh --random /media/Data/background"
  },
  //---------------------------------------------------------
  // ┏━┓┏━┓┏━╸╻   ┏┓ ┏━┓┏━╸╻┏ ┏━╸┏━┓┏━┓╻ ╻┏┓╻╺┳┓
  // ┣┳┛┃ ┃┣╸ ┃   ┣┻┓┣━┫┃  ┣┻┓┃╺┓┣┳┛┃ ┃┃ ┃┃┗┫ ┃┃
  // ╹┗╸┗━┛╹  ╹   ┗━┛╹ ╹┗━╸╹ ╹┗━┛╹┗╸┗━┛┗━┛╹ ╹╺┻┛
  //---------------------------------------------------------
  "custom/background_rofi": {
    "format": "󰋯",
    "return-type": "json",
    "interval": "once",
    "exec": "echo '{\"tooltip\":\"Super+Ctrl+W  select background\"}'",
    "on-click": "~/.config/hypr/scripts/selectwal.sh --select  /media/Data/background/colections"
  },
  //---------------------------------------------------------
  // ╺┳╸╻ ╻┏━╸┏┳┓┏━╸   ┏┓ ┏━┓┏━╸╻┏ ┏━╸┏━┓┏━┓╻ ╻┏┓╻╺┳┓
  //  ┃ ┣━┫┣╸ ┃┃┃┣╸    ┣┻┓┣━┫┃  ┣┻┓┃╺┓┣┳┛┃ ┃┃ ┃┃┗┫ ┃┃
  //  ╹ ╹ ╹┗━╸╹ ╹┗━╸   ┗━┛╹ ╹┗━╸╹ ╹┗━┛╹┗╸┗━┛┗━┛╹ ╹╺┻┛
  //---------------------------------------------------------
  "custom/canvas_background": {
    "format": "󰋩",
    "return-type": "json",
    "interval": "once",
    "exec": "echo '{\"tooltip\":\"canvas background\"}'",
    "on-click": "$HOME/.config/hypr/scripts/canvas -R -a"
  },
  //---------------------------------------------------------
  // ╺┳╸╻ ╻┏━╸┏┳┓┏━╸   ┏━┓┏━╸╺┳╸╺┳╸╻┏┓╻┏━╸┏━┓
  //  ┃ ┣━┫┣╸ ┃┃┃┣╸    ┗━┓┣╸  ┃  ┃ ┃┃┗┫┃╺┓┗━┓
  //  ╹ ╹ ╹┗━╸╹ ╹┗━╸   ┗━┛┗━╸ ╹  ╹ ╹╹ ╹┗━┛┗━┛
  //---------------------------------------------------------
  "custom/settings": {
    "format": "漣",
    "return-type": "json",
    "interval": "once",
    "exec": "echo '{\"tooltip\":\"Super+Shift+S settings\"}'",
    "on-click": "kitty --class term-settings $HOME/.config/hypr/settings/settings.sh"
  },
  "image#album_art": {
    "path": "/tmp/cover.png",
    "size": 24,
    "interval": 30,
    "on-click": "mpc toggle && ~/.ncmpcpp/ncmpimg",
    "on-click-right": "kitty  --class kitty-music  ncmpcpp --slave-screen playlist "
  },
  "power-profiles-daemon": {
    "format": "{icon}",
    "tooltip-format": "Power profile: {profile}\nDriver: {driver}",
    "tooltip": true,
    "format-icons": {
      "default": "",
      "performance": "",
      "balanced": "",
      "power-saver": ""
    }
  },
  //-----------------------
  //   theme EWW
  //-----------------------
  "custom/eww": {
    "format": "  ",
    "return-type": "json",
    "interval": "once",
    "exec": "echo '{\"tooltip\":\"Super+S System Info\"}'",
    "on-click": "$HOME/.config/hypr/scripts/launch-eww-bot eww-tr  /dev/null & "
  },
  //-----------------------
  // ┏━┓┏━┓┏━┓┏━┓╻ ╻
  // ┣━┫┣┳┛┣┳┛┃ ┃┃╻┃
  // ╹ ╹╹┗╸╹┗╸┗━┛┗┻┛
  //-----------------------
  "custom/arrowRight": {
    "format": "",
    "tooltip": false
  },
  "custom/arrowLeft": {
    "format": "  ",
    "tooltip": false
  },
  "custom/arrowUp": {
    "format": "",
    "tooltip": false
  },
  "custom/arrowDown": {
    "format": "",
    "tooltip": false
  },
  //  VSCodium -----------------dev.zed.Zed
  "image#zeditor": {
    "exec": "$HOME/.config/hypr/scripts/hyprdockapps.sh dev.zed.Zed zed",
    "on-click": "/usr/bin/zeditor",
    "size": 24,
    "signal": 8,
    "interval": 3600
  },
  //  Brave -----------------
  "image#firefox": {
    "exec": "$HOME/.config/hypr/scripts/hyprdockapps.sh firefox firefox",
    "on-click": "firefox",
    "size": 24,
    "signal": 8,
    "interval": 3600
  },
  //  Thunar -----------------
  "image#thunar": {
    "exec": "$HOME/.config/hypr/scripts/hyprdockapps.sh Thunar folder_home",
    "on-click": "Thunar",
    "size": 24,
    "signal": 8,
    "interval": 3600
  },
  //  TERMINAL -----------------
  "image#Terminal": {
    "exec": "$HOME/.config/hypr/scripts/hyprdockapps.sh  xfce4-terminal Terminal ",
    "on-click": "xfce4-terminal",
    "signal": 8,
    "size": 24,
    "interval": 3600
  },

  //---------------------------------------------------------
  // POWER
  //---------------------------------------------------------
  "custom/power": {
    "format": "  ",
    "tooltip": false,
    "on-click": "$HOME/.config/wlogout/logout.sh h"
  },

  //---------------------------------------------------------
  // ┏━┓┏━╸┏━┓┏━┓┏━┓┏━┓╺┳╸┏━┓┏━┓
  // ┗━┓┣╸ ┣━┛┣━┫┣┳┛┣━┫ ┃ ┃ ┃┣┳┛
  // ┗━┛┗━╸╹  ╹ ╹╹┗╸╹ ╹ ╹ ┗━┛╹┗╸
  //---------------------------------------------------------
  "custom/separator": {
    "format": "|",
    "tooltip": false
  },

  "custom/sep-temp": {
    "format": "",
    "tooltip": false
  },
  "custom/sep-temp-left": {
    "format": "",
    "tooltip": false
  },

  "custom/sep-power": {
    "format": "",
    "tooltip": false
  },

  "custom/sep-tray": {
    "format": "",
    "tooltip": false
  },
  "custom/sep-tray-left": {
    "format": "",
    "tooltip": false
  },
  "custom/sep-wal": {
    "format": "",
    "tooltip": false
  },
  "custom/sep-wal-left": {
    "format": "",
    "tooltip": false
  },
  "custom/sep-clock": {
    "format": "",
    "tooltip": false
  },
  "custom/sep-clock-left": {
    "format": "",
    "tooltip": false
  }
}
